{
  "arch": "x86_64", 
  "build": "py27_0", 
  "build_number": 0, 
  "files": [
    "lib/python2.7/site-packages/cdecimal-2.3-py2.7.egg-info", 
    "lib/python2.7/site-packages/cdecimal.so"
  ], 
  "link": {
    "source": "/mnt/home/jenkins/workspace/anaconda-cs-2.2.0-lr-master-latest/sake/modules/anaconda-cs/2.2.0-anaconda-cs-c8/pkgs/cdecimal-2.3-py27_0", 
    "type": "hard-link"
  }, 
  "name": "cdecimal", 
  "platform": "linux", 
  "requires": [
    "python 2.7"
  ], 
  "ucs": 4, 
  "url": null, 
  "version": "2.3"
}