{
  "arch": "x86_64", 
  "build": "py27_0", 
  "build_number": 0, 
  "depends": [
    "python 2.7*"
  ], 
  "files": [
    "bin/activate", 
    "bin/conda-env", 
    "bin/deactivate", 
    "lib/python2.7/site-packages/conda_env-2.1.3-py2.7.egg-info", 
    "lib/python2.7/site-packages/conda_env/__init__.py", 
    "lib/python2.7/site-packages/conda_env/__init__.pyc", 
    "lib/python2.7/site-packages/conda_env/cli/__init__.py", 
    "lib/python2.7/site-packages/conda_env/cli/__init__.pyc", 
    "lib/python2.7/site-packages/conda_env/cli/main.py", 
    "lib/python2.7/site-packages/conda_env/cli/main.pyc", 
    "lib/python2.7/site-packages/conda_env/cli/main_create.py", 
    "lib/python2.7/site-packages/conda_env/cli/main_create.pyc", 
    "lib/python2.7/site-packages/conda_env/cli/main_export.py", 
    "lib/python2.7/site-packages/conda_env/cli/main_export.pyc", 
    "lib/python2.7/site-packages/conda_env/cli/main_list.py", 
    "lib/python2.7/site-packages/conda_env/cli/main_list.pyc", 
    "lib/python2.7/site-packages/conda_env/cli/main_remove.py", 
    "lib/python2.7/site-packages/conda_env/cli/main_remove.pyc", 
    "lib/python2.7/site-packages/conda_env/cli/main_update.py", 
    "lib/python2.7/site-packages/conda_env/cli/main_update.pyc", 
    "lib/python2.7/site-packages/conda_env/compat.py", 
    "lib/python2.7/site-packages/conda_env/compat.pyc", 
    "lib/python2.7/site-packages/conda_env/env.py", 
    "lib/python2.7/site-packages/conda_env/env.pyc", 
    "lib/python2.7/site-packages/conda_env/exceptions.py", 
    "lib/python2.7/site-packages/conda_env/exceptions.pyc", 
    "lib/python2.7/site-packages/conda_env/installers/__init__.py", 
    "lib/python2.7/site-packages/conda_env/installers/__init__.pyc", 
    "lib/python2.7/site-packages/conda_env/installers/base.py", 
    "lib/python2.7/site-packages/conda_env/installers/base.pyc", 
    "lib/python2.7/site-packages/conda_env/installers/conda.py", 
    "lib/python2.7/site-packages/conda_env/installers/conda.pyc", 
    "lib/python2.7/site-packages/conda_env/installers/pip.py", 
    "lib/python2.7/site-packages/conda_env/installers/pip.pyc", 
    "lib/python2.7/site-packages/conda_env/yaml.py", 
    "lib/python2.7/site-packages/conda_env/yaml.pyc"
  ], 
  "license": "BSD", 
  "link": {
    "source": "/mnt/home/jenkins/workspace/anaconda-cs-2.2.0-lr-master-latest/sake/modules/anaconda-cs/2.2.0-anaconda-cs-c8/pkgs/conda-env-2.1.3-py27_0", 
    "type": "hard-link"
  }, 
  "name": "conda-env", 
  "platform": "linux", 
  "requires": [
    "python 2.7"
  ], 
  "ucs": 4, 
  "url": null, 
  "version": "2.1.3"
}