{
  "arch": "x86_64", 
  "build": "py27_0", 
  "build_number": 0, 
  "depends": [
    "python 2.7*"
  ], 
  "files": [
    "lib/python2.7/site-packages/backports.ssl_match_hostname-3.4.0.2-py2.7.egg-info", 
    "lib/python2.7/site-packages/backports/__init__.py", 
    "lib/python2.7/site-packages/backports/__init__.pyc", 
    "lib/python2.7/site-packages/backports/ssl_match_hostname/LICENSE.txt", 
    "lib/python2.7/site-packages/backports/ssl_match_hostname/README.txt", 
    "lib/python2.7/site-packages/backports/ssl_match_hostname/__init__.py", 
    "lib/python2.7/site-packages/backports/ssl_match_hostname/__init__.pyc"
  ], 
  "link": {
    "source": "/mnt/home/jenkins/workspace/anaconda-cs-2.2.0-lr-master-latest/sake/modules/anaconda-cs/2.2.0-anaconda-cs-c8/pkgs/ssl_match_hostname-3.4.0.2-py27_0", 
    "type": "hard-link"
  }, 
  "name": "ssl_match_hostname", 
  "platform": "linux", 
  "requires": [
    "python 2.7"
  ], 
  "ucs": 4, 
  "url": null, 
  "version": "3.4.0.2"
}