{
  "arch": "x86_64", 
  "build": "0", 
  "build_number": 0, 
  "depends": [], 
  "files": [
    "include/zconf.h", 
    "include/zlib.h", 
    "lib/libz.a", 
    "lib/libz.so", 
    "lib/libz.so.1", 
    "lib/libz.so.1.2.8", 
    "lib/pkgconfig/zlib.pc"
  ], 
  "license": "zlib (http://zlib.net/zlib_license.html)", 
  "link": {
    "source": "/mnt/home/jenkins/workspace/anaconda-cs-2.2.0-lr-master-latest/sake/modules/anaconda-cs/2.2.0-anaconda-cs-c8/pkgs/zlib-1.2.8-0", 
    "type": "hard-link"
  }, 
  "name": "zlib", 
  "platform": "linux", 
  "requires": [], 
  "url": null, 
  "version": "1.2.8"
}